RV32I_modules/rv32i_wave.vcd
$date
	Mon Jul  6 22:07:29 2026
$end
$version
	Icarus Verilog
$end
$timescale
	1ps
$end
$scope module tb_top $end
$var wire 4 ! alu_op [3:0] $end
$var wire 1 " freeze $end
$var wire 1 # hazard $end
$var wire 32 $ inst_id [31:0] $end
$var wire 32 % inst_if [31:0] $end
$var wire 32 & pc_ex [31:0] $end
$var wire 32 ' pc_id [31:0] $end
$var wire 32 ( pc_if [31:0] $end
$var wire 2 ) pc_src [1:0] $end
$var wire 32 * rd_data [31:0] $end
$var wire 5 + rd_wb [4:0] $end
$var wire 32 , result [31:0] $end
$var wire 1 - we_wb $end
$var reg 1 . clk $end
$scope module DUT $end
$var wire 1 . clk $end
$var wire 5 / rs2_id [4:0] $end
$var wire 5 0 rs2_ex [4:0] $end
$var wire 32 1 rs2_data_mem [31:0] $end
$var wire 32 2 rs2_data_id [31:0] $end
$var wire 32 3 rs2_data_fwd [31:0] $end
$var wire 32 4 rs2_data_ex [31:0] $end
$var wire 5 5 rs1_id [4:0] $end
$var wire 5 6 rs1_ex [4:0] $end
$var wire 32 7 rs1_data_id [31:0] $end
$var wire 32 8 rs1_data_ex [31:0] $end
$var wire 32 9 result_wb [31:0] $end
$var wire 32 : result_mem [31:0] $end
$var wire 32 ; result_alu [31:0] $end
$var wire 5 < rd_wb [4:0] $end
$var wire 5 = rd_mem [4:0] $end
$var wire 5 > rd_id [4:0] $end
$var wire 5 ? rd_ex [4:0] $end
$var wire 32 @ rd_data_wb [31:0] $end
$var wire 32 A pc_if [31:0] $end
$var wire 32 B pc_id [31:0] $end
$var wire 32 C pc_ex [31:0] $end
$var wire 32 D mem_data_wb [31:0] $end
$var wire 32 E mem_data_mem [31:0] $end
$var wire 32 F jump_addr [31:0] $end
$var wire 32 G inst_if [31:0] $end
$var wire 32 H inst_id [31:0] $end
$var wire 32 I imm_id [31:0] $end
$var wire 32 J imm_ex [31:0] $end
$var wire 32 K foredata_B [31:0] $end
$var wire 32 L foredata_A [31:0] $end
$var wire 1 M WE_wb $end
$var wire 1 N WE_mem $end
$var wire 1 O WE_id $end
$var wire 1 P WE_ex $end
$var wire 1 Q UNSIGNED $end
$var wire 4 R TYPE [3:0] $end
$var wire 2 S PC_SRC [1:0] $end
$var wire 2 T OP_2_id [1:0] $end
$var wire 2 U OP_2_ex [1:0] $end
$var wire 2 V OP_1_id [1:0] $end
$var wire 2 W OP_1_ex [1:0] $end
$var wire 1 X NOP_IF_ID $end
$var wire 1 Y NOP_ID_EX $end
$var wire 1 Z MEM_WRITE_mem $end
$var wire 1 [ MEM_WRITE_id $end
$var wire 1 \ MEM_WRITE_ex $end
$var wire 1 ] MEM_WRITE_SEL_wb $end
$var wire 1 ^ MEM_WRITE_SEL_mem $end
$var wire 1 _ MEM_WRITE_SEL_id $end
$var wire 1 ` MEM_WRITE_SEL_ex $end
$var wire 1 a MEM_READ_mem $end
$var wire 1 b MEM_READ_id $end
$var wire 1 c MEM_READ_ex $end
$var wire 1 d HAZARD $end
$var wire 1 e FREEZE $end
$var wire 1 f FORWARD_B $end
$var wire 1 g FORWARD_A $end
$var wire 4 h ALU_OP_id [3:0] $end
$var wire 4 i ALU_OP_ex [3:0] $end
$scope module ALU_INST $end
$var wire 32 j rs2_data [31:0] $end
$var wire 32 k rs1_data [31:0] $end
$var wire 32 l pc [31:0] $end
$var wire 32 m jump_addr [31:0] $end
$var wire 32 n imm [31:0] $end
$var wire 32 o foredata_B [31:0] $end
$var wire 32 p foredata_A [31:0] $end
$var wire 2 q OP_2 [1:0] $end
$var wire 2 r OP_1 [1:0] $end
$var wire 1 f FORWARD_B $end
$var wire 1 g FORWARD_A $end
$var wire 4 s ALU_OP [3:0] $end
$var reg 32 t operand1 [31:0] $end
$var reg 32 u operand2 [31:0] $end
$var reg 32 v result [31:0] $end
$upscope $end
$scope module CONTROLLER_INST $end
$var wire 1 . clk $end
$var wire 32 w result [31:0] $end
$var wire 7 x op_code [6:0] $end
$var wire 32 y inst [31:0] $end
$var wire 1 d HAZARD $end
$var reg 4 z ALU_OP [3:0] $end
$var reg 1 e FREEZE $end
$var reg 1 b MEM_READ $end
$var reg 1 [ MEM_WRITE $end
$var reg 1 _ MEM_WRITE_SEL $end
$var reg 1 Y NOP_ID_EX $end
$var reg 1 X NOP_IF_ID $end
$var reg 2 { OP_1 [1:0] $end
$var reg 2 | OP_2 [1:0] $end
$var reg 2 } PC_SRC [1:0] $end
$var reg 4 ~ TYPE [3:0] $end
$var reg 1 Q UNSIGNED $end
$var reg 1 O WE $end
$var reg 2 !" next_state [1:0] $end
$var reg 2 "" state [1:0] $end
$upscope $end
$scope module EX_MEM_INST $end
$var wire 1 . clk $end
$var wire 32 #" result_in [31:0] $end
$var wire 32 $" rs2_data_in [31:0] $end
$var wire 5 %" rd_in [4:0] $end
$var wire 1 P WE_in $end
$var wire 1 \ MEM_WRITE_in $end
$var wire 1 ` MEM_WRITE_SEL_in $end
$var wire 1 c MEM_READ_in $end
$var reg 1 a MEM_READ $end
$var reg 1 Z MEM_WRITE $end
$var reg 1 ^ MEM_WRITE_SEL $end
$var reg 1 N WE $end
$var reg 5 &" rd [4:0] $end
$var reg 32 '" result [31:0] $end
$var reg 32 (" rs2_data [31:0] $end
$upscope $end
$scope module FORWARDING_UNIT_INST $end
$var wire 1 N EX_MEM_WE $end
$var wire 5 )" EX_MEM_rd [4:0] $end
$var wire 32 *" EX_MEM_result [31:0] $end
$var wire 2 +" OP_2 [1:0] $end
$var wire 2 ," OP_1 [1:0] $end
$var wire 32 -" MEM_WB_result [31:0] $end
$var wire 5 ." MEM_WB_rd [4:0] $end
$var wire 1 M MEM_WB_WE $end
$var wire 5 /" ID_EX_rs2 [4:0] $end
$var wire 5 0" ID_EX_rs1 [4:0] $end
$var reg 1 g FORWARD_A $end
$var reg 1 f FORWARD_B $end
$var reg 32 1" foredata_A [31:0] $end
$var reg 32 2" foredata_B [31:0] $end
$upscope $end
$scope module HAZARD_DETECTION_UNIT_INST $end
$var wire 5 3" IF_ID_rs1 [4:0] $end
$var wire 5 4" IF_ID_rs2 [4:0] $end
$var wire 5 5" ID_EX_rd [4:0] $end
$var wire 1 c ID_EX_MEM_READ $end
$var reg 1 d HAZARD $end
$upscope $end
$scope module ID_EX_INST $end
$var wire 4 6" ALU_OP_in [3:0] $end
$var wire 1 b MEM_READ_in $end
$var wire 1 _ MEM_WRITE_SEL_in $end
$var wire 1 [ MEM_WRITE_in $end
$var wire 1 Y NOP_ID_EX $end
$var wire 2 7" OP_1_in [1:0] $end
$var wire 2 8" OP_2_in [1:0] $end
$var wire 1 O WE_in $end
$var wire 1 . clk $end
$var wire 5 9" rd_in [4:0] $end
$var wire 5 :" rs1_in [4:0] $end
$var wire 5 ;" rs2_in [4:0] $end
$var wire 32 <" rs2_data_in [31:0] $end
$var wire 32 =" rs1_data_in [31:0] $end
$var wire 32 >" pc_in [31:0] $end
$var wire 32 ?" imm_in [31:0] $end
$var reg 4 @" ALU_OP [3:0] $end
$var reg 1 c MEM_READ $end
$var reg 1 \ MEM_WRITE $end
$var reg 1 ` MEM_WRITE_SEL $end
$var reg 2 A" OP_1 [1:0] $end
$var reg 2 B" OP_2 [1:0] $end
$var reg 1 P WE $end
$var reg 32 C" imm [31:0] $end
$var reg 32 D" pc [31:0] $end
$var reg 5 E" rd [4:0] $end
$var reg 5 F" rs1 [4:0] $end
$var reg 32 G" rs1_data [31:0] $end
$var reg 5 H" rs2 [4:0] $end
$var reg 32 I" rs2_data [31:0] $end
$upscope $end
$scope module IF_ID_INST $end
$var wire 1 e FREEZE $end
$var wire 1 X NOP_IF_ID $end
$var wire 1 . clk $end
$var wire 32 J" pc_in [31:0] $end
$var wire 32 K" inst_in [31:0] $end
$var reg 32 L" inst [31:0] $end
$var reg 32 M" pc [31:0] $end
$upscope $end
$scope module IF_MODULE_INST $end
$var wire 2 N" PC_SRC [1:0] $end
$var wire 1 . clk $end
$var wire 32 O" pc_if [31:0] $end
$var wire 32 P" result [31:0] $end
$var wire 32 Q" inst [31:0] $end
$var wire 32 R" imm [31:0] $end
$var reg 32 S" pc [31:0] $end
$var integer 32 T" i [31:0] $end
$upscope $end
$scope module MEM_INST $end
$var wire 1 a MEM_READ $end
$var wire 1 Z MEM_WRITE $end
$var wire 32 U" addr [31:0] $end
$var wire 1 . clk $end
$var wire 32 V" rs2_data [31:0] $end
$var wire 32 W" mem_data [31:0] $end
$var integer 32 X" i [31:0] $end
$upscope $end
$scope module MEM_WB_INST $end
$var wire 1 ^ MEM_WRITE_SEL_in $end
$var wire 1 N WE_in $end
$var wire 1 . clk $end
$var wire 32 Y" mem_data_in [31:0] $end
$var wire 5 Z" rd_in [4:0] $end
$var wire 32 [" result_in [31:0] $end
$var reg 1 ] MEM_WRITE_SEL $end
$var reg 1 M WE $end
$var reg 32 \" mem_data [31:0] $end
$var reg 5 ]" rd [4:0] $end
$var reg 32 ^" result [31:0] $end
$upscope $end
$scope module REG_BANK_INST $end
$var wire 1 M WE $end
$var wire 1 . clk $end
$var wire 5 _" rd [4:0] $end
$var wire 5 `" rs1 [4:0] $end
$var wire 5 a" rs2 [4:0] $end
$var wire 32 b" rd_data [31:0] $end
$var reg 32 c" rs1_data [31:0] $end
$var reg 32 d" rs2_data [31:0] $end
$upscope $end
$scope module SIGN_EXTEND_INST $end
$var wire 4 e" TYPE [3:0] $end
$var wire 1 Q UNSIGNED $end
$var wire 25 f" inst_part [24:0] $end
$var reg 32 g" imm [31:0] $end
$upscope $end
$scope module WB_INST $end
$var wire 1 ] MEM_WRITE_SEL $end
$var wire 32 h" mem_data [31:0] $end
$var wire 32 i" result [31:0] $end
$var wire 32 j" rd_data [31:0] $end
$upscope $end
$upscope $end
$scope begin mem_dump $end
$var integer 32 k" k [31:0] $end
$upscope $end
$scope begin reg_dump $end
$var integer 32 l" j [31:0] $end
$upscope $end
$upscope $end
$enddefinitions $end
#0
$dumpvars
bx l"
bx k"
bx j"
bx i"
bx h"
bx g"
bx f"
bx e"
bx d"
bx c"
bx b"
bx a"
bx `"
bx _"
bx ^"
bx ]"
bx \"
bx ["
bx Z"
bx Y"
b1000000000000 X"
bx W"
bx V"
bx U"
b1000000000000 T"
b0 S"
bx R"
b10001000100110111 Q"
bx P"
b0 O"
bx N"
bx M"
bx L"
b10001000100110111 K"
b0 J"
bx I"
bx H"
bx G"
bx F"
bx E"
bx D"
bx C"
bx B"
bx A"
bx @"
bx ?"
bx >"
bx ="
bx <"
bx ;"
bx :"
bx 9"
bx 8"
bx 7"
bx 6"
bx 5"
bx 4"
bx 3"
bx 2"
bx 1"
bx 0"
bx /"
bx ."
bx -"
bx ,"
bx +"
bx *"
bx )"
bx ("
bx '"
bx &"
bx %"
bx $"
bx #"
b0 ""
b0 !"
bx ~
bx }
bx |
bx {
bx z
bx y
bx x
bx w
bx v
bx u
bx t
bx s
bx r
bx q
bx p
bx o
bx n
bx m
bx l
bx k
bx j
bx i
bx h
xg
xf
xe
xd
xc
xb
xa
x`
x_
x^
x]
x\
x[
xZ
xY
xX
bx W
bx V
bx U
bx T
bx S
bx R
xQ
xP
xO
xN
xM
bx L
bx K
bx J
bx I
bx H
b10001000100110111 G
bx F
bx E
bx D
bx C
bx B
b0 A
bx @
bx ?
bx >
bx =
bx <
bx ;
bx :
bx 9
bx 8
bx 7
bx 6
bx 5
bx 4
bx 3
bx 2
bx 1
bx 0
bx /
0.
x-
bx ,
bx +
bx *
bx )
b0 (
bx '
bx &
b10001000100110111 %
bx $
x#
x"
bx !
$end
#5000
b10001000000000000 I
b10001000000000000 ?"
b10001000000000000 R"
b10001000000000000 g"
0_
b0 h
b0 z
b0 6"
0"
0e
0Y
1O
0[
b10 T
b10 |
b10 8"
b10 V
b10 {
b10 7"
0X
0Q
b1 )
b1 S
b1 }
b1 N"
0b
b101 R
b101 ~
b101 e"
0#
0d
b0 2
b0 <"
b0 d"
b0 7
b0 ="
b0 c"
b110111 x
b10 >
b10 9"
b0 /
b0 4"
b0 ;"
b0 a"
b10 5
b10 3"
b10 :"
b10 `"
b1000100010 f"
b10000000100010011 %
b10000000100010011 G
b10000000100010011 K"
b10000000100010011 Q"
b100 A
b100 J"
b100 O"
b100 (
b100 S"
b10001000100110111 $
b10001000100110111 H
b10001000100110111 y
b10001000100110111 L"
b0 '
b0 B
b0 >"
b0 M"
1.
#10000
0.
#15000
b0 V
b0 {
b0 7"
b1 R
b1 ~
b1 e"
b0 I
b0 ?"
b0 R"
b0 g"
b10001000000000000 F
b10001000000000000 m
b10001000000000000 P"
b0 K
b0 o
b0 2"
0f
b0 L
b0 p
b0 1"
0g
b10001000000000000 ,
b10001000000000000 ;
b10001000000000000 v
b10001000000000000 w
b10001000000000000 #"
b10001000000000000 u
b0 t
b10011 x
b1000000010 f"
0`
0c
b0 0
b0 /"
b0 H"
b10 6
b10 0"
b10 F"
b0 4
b0 j
b0 I"
b0 8
b0 k
b0 G"
1P
b10 U
b10 q
b10 +"
b10 B"
b10 W
b10 r
b10 ,"
b10 A"
b0 !
b0 i
b0 s
b0 @"
0\
b10 ?
b10 %"
b10 5"
b10 E"
b0 &
b0 C
b0 l
b0 D"
b10001000000000000 J
b10001000000000000 n
b10001000000000000 C"
b10000000100010011 $
b10000000100010011 H
b10000000100010011 y
b10000000100010011 L"
b100 '
b100 B
b100 >"
b100 M"
b100000000000000011101111 %
b100000000000000011101111 G
b100000000000000011101111 K"
b100000000000000011101111 Q"
b1000 A
b1000 J"
b1000 O"
b1000 (
b1000 S"
1.
#20000
0.
#25000
b1 T
b1 |
b1 8"
b1 V
b1 {
b1 7"
1X
b10 )
b10 S
b10 }
b10 N"
b111 R
b111 ~
b111 e"
b1000 I
b1000 ?"
b1000 R"
b1000 g"
b0 E
b0 W"
b0 Y"
b1101111 x
b1 >
b1 9"
b1000 /
b1000 4"
b1000 ;"
b1000 a"
b0 5
b0 3"
b0 :"
b0 `"
b10000000000000001 f"
b10001000000000000 F
b10001000000000000 m
b10001000000000000 P"
b0 u
b10001000000000000 t
b0 3
b0 $"
b10001000000000000 L
b10001000000000000 p
b10001000000000000 1"
1g
b1101111 %
b1101111 G
b1101111 K"
b1101111 Q"
b1100 A
b1100 J"
b1100 O"
b1100 (
b1100 S"
b100000000000000011101111 $
b100000000000000011101111 H
b100000000000000011101111 y
b100000000000000011101111 L"
b1000 '
b1000 B
b1000 >"
b1000 M"
b0 W
b0 r
b0 ,"
b0 A"
b100 &
b100 C
b100 l
b100 D"
b0 J
b0 n
b0 C"
0^
0a
1N
0Z
b10001000000000000 :
b10001000000000000 '"
b10001000000000000 *"
b10001000000000000 U"
b10001000000000000 ["
b10 =
b10 &"
b10 )"
b10 Z"
1.
#30000
0.
#35000
b1000 t
b1100 ,
b1100 ;
b1100 v
b1100 w
b1100 #"
b10 T
b10 |
b10 8"
b0 V
b0 {
b0 7"
0X
b1 )
b1 S
b1 }
b1 N"
b1 R
b1 ~
b1 e"
b0 I
b0 ?"
b0 R"
b0 g"
b10001000000000000 *
b10001000000000000 @
b10001000000000000 -"
b10001000000000000 b"
b10001000000000000 j"
b0 L
b0 p
b0 1"
0g
b1000 F
b1000 m
b1000 P"
b100 u
b10011 x
b0 >
b0 9"
b0 /
b0 4"
b0 ;"
b0 a"
b0 f"
0]
b0 D
b0 \"
b0 h"
b10001000000000000 9
b10001000000000000 ^"
b10001000000000000 i"
b10 +
b10 <
b10 ."
b10 ]"
b10 _"
1-
1M
b0 1
b0 ("
b0 V"
b1000 0
b1000 /"
b1000 H"
b0 6
b0 0"
b0 F"
b1 U
b1 q
b1 +"
b1 B"
b1 W
b1 r
b1 ,"
b1 A"
b1 ?
b1 %"
b1 5"
b1 E"
b1000 &
b1000 C
b1000 l
b1000 D"
b1000 J
b1000 n
b1000 C"
b10011 $
b10011 H
b10011 y
b10011 L"
b1100 '
b1100 B
b1100 >"
b1100 M"
b11111101000000010000000100010011 %
b11111101000000010000000100010011 G
b11111101000000010000000100010011 K"
b11111101000000010000000100010011 Q"
b10000 A
b10000 J"
b10000 O"
b10000 (
b10000 S"
1.
#40000
0.
#45000
b10001000000000000 7
b10001000000000000 ="
b10001000000000000 c"
b11111111111111111111111111010000 I
b11111111111111111111111111010000 ?"
b11111111111111111111111111010000 R"
b11111111111111111111111111010000 g"
b0 ,
b0 ;
b0 v
b0 w
b0 #"
b10 >
b10 9"
b10000 /
b10000 4"
b10000 ;"
b10000 a"
b10 5
b10 3"
b10 :"
b10 `"
b1111110100000001000000010 f"
b0 F
b0 m
b0 P"
b0 u
b0 t
b10100000010010011000100011 %
b10100000010010011000100011 G
b10100000010010011000100011 K"
b10100000010010011000100011 Q"
b10100 A
b10100 J"
b10100 O"
b10100 (
b10100 S"
b11111101000000010000000100010011 $
b11111101000000010000000100010011 H
b11111101000000010000000100010011 y
b11111101000000010000000100010011 L"
b10000 '
b10000 B
b10000 >"
b10000 M"
b0 0
b0 /"
b0 H"
b10 U
b10 q
b10 +"
b10 B"
b0 W
b0 r
b0 ,"
b0 A"
b0 ?
b0 %"
b0 5"
b0 E"
b1100 &
b1100 C
b1100 l
b1100 D"
b0 J
b0 n
b0 C"
b1100 :
b1100 '"
b1100 *"
b1100 U"
b1100 ["
b1 =
b1 &"
b1 )"
b1 Z"
1.
#50000
0.
#55000
b10000111111010000 ,
b10000111111010000 ;
b10000111111010000 v
b10000111111010000 w
b10000111111010000 #"
0O
1[
b11 R
b11 ~
b11 e"
b101100 I
b101100 ?"
b101100 R"
b101100 g"
b1100 *
b1100 @
b1100 -"
b1100 b"
b1100 j"
b10000111111010000 F
b10000111111010000 m
b10000111111010000 P"
b11111111111111111111111111010000 u
b10001000000000000 t
b100011 x
b1100 >
b1100 9"
b1000 /
b1000 4"
b1000 ;"
b1000 a"
b1010000001001001100 f"
b0 h
b0 z
b0 6"
b1100 9
b1100 ^"
b1100 i"
b1 +
b1 <
b1 ."
b1 ]"
b1 _"
b0 :
b0 '"
b0 *"
b0 U"
b0 ["
b0 =
b0 &"
b0 )"
b0 Z"
b10000 0
b10000 /"
b10000 H"
b10 6
b10 0"
b10 F"
b10001000000000000 8
b10001000000000000 k
b10001000000000000 G"
b10 ?
b10 %"
b10 5"
b10 E"
b10000 &
b10000 C
b10000 l
b10000 D"
b11111111111111111111111111010000 J
b11111111111111111111111111010000 n
b11111111111111111111111111010000 C"
b10100000010010011000100011 $
b10100000010010011000100011 H
b10100000010010011000100011 y
b10100000010010011000100011 L"
b10100 '
b10100 B
b10100 >"
b10100 M"
b11000000010000010000010011 %
b11000000010000010000010011 G
b11000000010000010000010011 K"
b11000000010000010000010011 Q"
b11000 A
b11000 J"
b11000 O"
b11000 (
b11000 S"
1.
#60000
0.
#65000
1O
0[
b1 R
b1 ~
b1 e"
b110000 I
b110000 ?"
b110000 R"
b110000 g"
b10000111111111100 ,
b10000111111111100 ;
b10000111111111100 v
b10000111111111100 w
b10000111111111100 #"
b10011 x
b1000 >
b1000 9"
b10000 /
b10000 4"
b10000 ;"
b10000 a"
b1100000001000001000 f"
b10000111111111100 F
b10000111111111100 m
b10000111111111100 P"
b101100 u
b10000111111010000 t
b0 *
b0 @
b0 -"
b0 b"
b0 j"
b10000111111010000 L
b10000111111010000 p
b10000111111010000 1"
1g
b11111110000001000010011000100011 %
b11111110000001000010011000100011 G
b11111110000001000010011000100011 K"
b11111110000001000010011000100011 Q"
b11100 A
b11100 J"
b11100 O"
b11100 (
b11100 S"
b11000000010000010000010011 $
b11000000010000010000010011 H
b11000000010000010000010011 y
b11000000010000010000010011 L"
b11000 '
b11000 B
b11000 >"
b11000 M"
b1000 0
b1000 /"
b1000 H"
0P
1\
b1100 ?
b1100 %"
b1100 5"
b1100 E"
b10100 &
b10100 C
b10100 l
b10100 D"
b101100 J
b101100 n
b101100 C"
b10000111111010000 :
b10000111111010000 '"
b10000111111010000 *"
b10000111111010000 U"
b10000111111010000 ["
b10 =
b10 &"
b10 )"
b10 Z"
b0 9
b0 ^"
b0 i"
b0 +
b0 <
b0 ."
b0 ]"
b0 _"
1.
#70000
0.
#75000
b10000111111010000 t
b10001000000000000 ,
b10001000000000000 ;
b10001000000000000 v
b10001000000000000 w
b10001000000000000 #"
0O
1[
b11 R
b11 ~
b11 e"
b0 7
b0 ="
b0 c"
b11111111111111111111111111101100 I
b11111111111111111111111111101100 ?"
b11111111111111111111111111101100 R"
b11111111111111111111111111101100 g"
b10000111111010000 *
b10000111111010000 @
b10000111111010000 -"
b10000111111010000 b"
b10000111111010000 j"
b10000111111010000 L
b10000111111010000 p
b10000111111010000 1"
b10001000000000000 F
b10001000000000000 m
b10001000000000000 P"
b110000 u
b100011 x
b1100 >
b1100 9"
b0 /
b0 4"
b0 ;"
b0 a"
b1000 5
b1000 3"
b1000 :"
b1000 `"
b1111111000000100001001100 f"
b0 h
b0 z
b0 6"
b10000111111010000 9
b10000111111010000 ^"
b10000111111010000 i"
b10 +
b10 <
b10 ."
b10 ]"
b10 _"
0N
1Z
b10000111111111100 :
b10000111111111100 '"
b10000111111111100 *"
b10000111111111100 U"
b10000111111111100 ["
b1100 =
b1100 &"
b1100 )"
b1100 Z"
b10000 0
b10000 /"
b10000 H"
1P
0\
b1000 ?
b1000 %"
b1000 5"
b1000 E"
b11000 &
b11000 C
b11000 l
b11000 D"
b110000 J
b110000 n
b110000 C"
b11111110000001000010011000100011 $
b11111110000001000010011000100011 H
b11111110000001000010011000100011 y
b11111110000001000010011000100011 L"
b11100 '
b11100 B
b11100 >"
b11100 M"
b11000000000000000001101111 %
b11000000000000000001101111 G
b11000000000000000001101111 K"
b11000000000000000001101111 Q"
b100000 A
b100000 J"
b100000 O"
b100000 (
b100000 S"
1.
#80000
0.
#85000
1O
0[
b1 T
b1 |
b1 8"
b1 V
b1 {
b1 7"
1X
b10 )
b10 S
b10 }
b10 N"
b111 R
b111 ~
b111 e"
b110000 I
b110000 ?"
b110000 R"
b110000 g"
b10000111111101100 ,
b10000111111101100 ;
b10000111111101100 v
b10000111111101100 w
b10000111111101100 #"
b1101111 x
b0 >
b0 9"
b10000 /
b10000 4"
b10000 ;"
b10000 a"
b0 5
b0 3"
b0 :"
b0 `"
b1100000000000000000 f"
b10000111111101100 F
b10000111111101100 m
b10000111111101100 P"
b11111111111111111111111111101100 u
b10001000000000000 t
b10000111111111100 *
b10000111111111100 @
b10000111111111100 -"
b10000111111111100 b"
b10000111111111100 j"
b10001000000000000 L
b10001000000000000 p
b10001000000000000 1"
b10000011110110111 %
b10000011110110111 G
b10000011110110111 K"
b10000011110110111 Q"
b100100 A
b100100 J"
b100100 O"
b100100 (
b100100 S"
b11000000000000000001101111 $
b11000000000000000001101111 H
b11000000000000000001101111 y
b11000000000000000001101111 L"
b100000 '
b100000 B
b100000 >"
b100000 M"
b0 0
b0 /"
b0 H"
b1000 6
b1000 0"
b1000 F"
b0 8
b0 k
b0 G"
0P
1\
b1100 ?
b1100 %"
b1100 5"
b1100 E"
b11100 &
b11100 C
b11100 l
b11100 D"
b11111111111111111111111111101100 J
b11111111111111111111111111101100 n
b11111111111111111111111111101100 C"
1N
0Z
b10001000000000000 :
b10001000000000000 '"
b10001000000000000 *"
b10001000000000000 U"
b10001000000000000 ["
b1000 =
b1000 &"
b1000 )"
b1000 Z"
b10000111111111100 9
b10000111111111100 ^"
b10000111111111100 i"
b1100 +
b1100 <
b1100 ."
b1100 ]"
b1100 _"
0-
0M
1.
#90000
0.
#95000
b100000 t
b100100 ,
b100100 ;
b100100 v
b100100 w
b100100 #"
b10 T
b10 |
b10 8"
b0 V
b0 {
b0 7"
0X
b1 )
b1 S
b1 }
b1 N"
b1 R
b1 ~
b1 e"
b0 I
b0 ?"
b0 R"
b0 g"
b10001000000000000 *
b10001000000000000 @
b10001000000000000 -"
b10001000000000000 b"
b10001000000000000 j"
b0 L
b0 p
b0 1"
0g
b110000 F
b110000 m
b110000 P"
b100 u
b10011 x
b0 /
b0 4"
b0 ;"
b0 a"
b0 f"
b10001000000000000 9
b10001000000000000 ^"
b10001000000000000 i"
b1000 +
b1000 <
b1000 ."
b1000 ]"
b1000 _"
1-
1M
0N
1Z
b10000111111101100 :
b10000111111101100 '"
b10000111111101100 *"
b10000111111101100 U"
b10000111111101100 ["
b1100 =
b1100 &"
b1100 )"
b1100 Z"
b10000 0
b10000 /"
b10000 H"
b0 6
b0 0"
b0 F"
1P
b1 U
b1 q
b1 +"
b1 B"
b1 W
b1 r
b1 ,"
b1 A"
0\
b0 ?
b0 %"
b0 5"
b0 E"
b100000 &
b100000 C
b100000 l
b100000 D"
b110000 J
b110000 n
b110000 C"
b10011 $
b10011 H
b10011 y
b10011 L"
b100100 '
b100100 B
b100100 >"
b100100 M"
b11111110110001000010011100000011 %
b11111110110001000010011100000011 G
b11111110110001000010011100000011 K"
b11111110110001000010011100000011 Q"
b1010000 A
b1010000 J"
b1010000 O"
b1010000 (
b1010000 S"
1.
#100000
0.
#105000
1_
1b
b10 R
b10 ~
b10 e"
b10001000000000000 7
b10001000000000000 ="
b10001000000000000 c"
b11111111111111111111111111101100 I
b11111111111111111111111111101100 ?"
b11111111111111111111111111101100 R"
b11111111111111111111111111101100 g"
b0 ,
b0 ;
b0 v
b0 w
b0 #"
b11 x
b1110 >
b1110 9"
b1100 /
b1100 4"
b1100 ;"
b1100 a"
b1000 5
b1000 3"
b1000 :"
b1000 `"
b1111111011000100001001110 f"
b0 h
b0 z
b0 6"
b0 F
b0 m
b0 P"
b0 u
b0 t
b10000111111101100 *
b10000111111101100 @
b10000111111101100 -"
b10000111111101100 b"
b10000111111101100 j"
b10000000000011110010011 %
b10000000000011110010011 G
b10000000000011110010011 K"
b10000000000011110010011 Q"
b1010100 A
b1010100 J"
b1010100 O"
b1010100 (
b1010100 S"
b11111110110001000010011100000011 $
b11111110110001000010011100000011 H
b11111110110001000010011100000011 y
b11111110110001000010011100000011 L"
b1010000 '
b1010000 B
b1010000 >"
b1010000 M"
b0 0
b0 /"
b0 H"
b10 U
b10 q
b10 +"
b10 B"
b0 W
b0 r
b0 ,"
b0 A"
b100100 &
b100100 C
b100100 l
b100100 D"
b0 J
b0 n
b0 C"
1N
0Z
b100100 :
b100100 '"
b100100 *"
b100100 U"
b100100 ["
b0 =
b0 &"
b0 )"
b0 Z"
b10000111111101100 9
b10000111111101100 ^"
b10000111111101100 i"
b1100 +
b1100 <
b1100 ."
b1100 ]"
b1100 _"
0-
0M
1.
#110000
0.
#115000
b10000111111101100 ,
b10000111111101100 ;
b10000111111101100 v
b10000111111101100 w
b10000111111101100 #"
0_
0b
b1 R
b1 ~
b1 e"
b0 7
b0 ="
b0 c"
b100 I
b100 ?"
b100 R"
b100 g"
b100100 *
b100100 @
b100100 -"
b100100 b"
b100100 j"
b10000111111101100 F
b10000111111101100 m
b10000111111101100 P"
b11111111111111111111111111101100 u
b10001000000000000 t
b10011 x
b1111 >
b1111 9"
b100 /
b100 4"
b100 ;"
b100 a"
b0 5
b0 3"
b0 :"
b0 `"
b1000000000001111 f"
b100100 9
b100100 ^"
b100100 i"
b0 +
b0 <
b0 ."
b0 ]"
b0 _"
1-
1M
b0 :
b0 '"
b0 *"
b0 U"
b0 ["
1`
1c
b1100 0
b1100 /"
b1100 H"
b1000 6
b1000 0"
b1000 F"
b10001000000000000 8
b10001000000000000 k
b10001000000000000 G"
b1110 ?
b1110 %"
b1110 5"
b1110 E"
b1010000 &
b1010000 C
b1010000 l
b1010000 D"
b11111111111111111111111111101100 J
b11111111111111111111111111101100 n
b11111111111111111111111111101100 C"
b10000000000011110010011 $
b10000000000011110010011 H
b10000000000011110010011 y
b10000000000011110010011 L"
b1010100 '
b1010100 B
b1010100 >"
b1010100 M"
b11111100111001111101011011100011 %
b11111100111001111101011011100011 G
b11111100111001111101011011100011 K"
b11111100111001111101011011100011 Q"
b1011000 A
b1011000 J"
b1011000 O"
b1011000 (
b1011000 S"
1.
#120000
0.
#125000
b1 !"
1"
1e
0O
b0 T
b0 |
b0 8"
b0 )
b0 S
b0 }
b0 N"
b100 R
b100 ~
b100 e"
b11111111111111111111111111001100 I
b11111111111111111111111111001100 ?"
b11111111111111111111111111001100 R"
b11111111111111111111111111001100 g"
b100 ,
b100 ;
b100 v
b100 w
b100 #"
bx E
bx W"
bx Y"
b1100011 x
b1101 >
b1101 9"
b1110 /
b1110 4"
b1110 ;"
b1110 a"
b1111 5
b1111 3"
b1111 :"
b1111 `"
b1111110011100111110101101 f"
b1011 h
b1011 z
b1011 6"
0Q
b100 F
b100 m
b100 P"
b100 u
b0 t
b0 *
b0 @
b0 -"
b0 b"
b0 j"
b10000011110110111 %
b10000011110110111 G
b10000011110110111 K"
b10000011110110111 Q"
b1011100 A
b1011100 J"
b1011100 O"
b1011100 (
b1011100 S"
b11111100111001111101011011100011 $
b11111100111001111101011011100011 H
b11111100111001111101011011100011 y
b11111100111001111101011011100011 L"
b1011000 '
b1011000 B
b1011000 >"
b1011000 M"
0`
0c
b100 0
b100 /"
b100 H"
b0 6
b0 0"
b0 F"
b0 8
b0 k
b0 G"
b1111 ?
b1111 %"
b1111 5"
b1111 E"
b1010100 &
b1010100 C
b1010100 l
b1010100 D"
b100 J
b100 n
b100 C"
1^
1a
b10000111111101100 :
b10000111111101100 '"
b10000111111101100 *"
b10000111111101100 U"
b10000111111101100 ["
b1110 =
b1110 &"
b1110 )"
b1110 Z"
b0 9
b0 ^"
b0 i"
1.
#130000
0.
